{
  "aspectWidth": 4,
  "aspectHeight": 3,
  "enableKeyboardZoom": true,
  "enableKeyboardRotation": true,
  "enableKeyboardNavigation": true,
  "enableMouseTranslation": true,
  "enableMouseZoom": true,
  "enableMouseRotation": true,
  "enableMouseNavigation": true,
  "updateURLOnFrameChange": true,
  "exportType": "pdf",
  "exportToPDFPageSize": "A4",
  "exportToPDFPageOrientation": "landscape",
  "exportToPDFInclude": "",
  "exportToPDFExclude": "",
  "exportToPPTXSlideSize": "screen4x3",
  "exportToPPTXInclude": "",
  "exportToPPTXExclude": "",
  "exportToVideoFormat": "webm",
  "exportToVideoWidth": 1280,
  "exportToVideoHeight": 720,
  "exportToVideoFrameRate": 50,
  "exportToVideoBitRate": 2000000,
  "frames": [
    {
      "frameId": "frame5248",
      "title": "Graphical Abstract",
      "titleLevel": 0,
      "notes": "",
      "timeoutMs": 0,
      "timeoutEnable": false,
      "transitionDurationMs": 1000,
      "showInFrameList": true,
      "showFrameNumber": true,
      "layerProperties": {
        "layer1": {
          "link": false,
          "referenceElementId": "image1",
          "outlineElementId": "",
          "transitionTimingFunction": "linear",
          "transitionRelativeZoom": 0,
          "transitionPathId": ""
        },
        "__sozi_auto__": {
          "link": false,
          "referenceElementId": "",
          "outlineElementId": "",
          "transitionTimingFunction": "linear",
          "transitionRelativeZoom": 0,
          "transitionPathId": ""
        }
      },
      "cameraStates": {
        "layer1": {
          "cx": 2001.1368310114294,
          "cy": 671.0752318952932,
          "width": 530.110751580353,
          "height": 397.4356469022892,
          "opacity": 1,
          "angle": 0,
          "clipped": false,
          "clipXOffset": 0,
          "clipYOffset": 0,
          "clipWidthFactor": 1,
          "clipHeightFactor": 1
        },
        "__sozi_auto__": {
          "cx": 2001.1368310114294,
          "cy": 671.0752318952932,
          "width": 530.1107515803529,
          "height": 397.4356469022891,
          "opacity": 1,
          "angle": 0,
          "clipped": false,
          "clipXOffset": 0,
          "clipYOffset": 0,
          "clipWidthFactor": 1,
          "clipHeightFactor": 1
        }
      },
      "cameraOffsets": {
        "layer1": {
          "deltaX": -28.297861371383078,
          "deltaY": -12.8963257218943,
          "widthFactor": 1.7513708821845673,
          "heightFactor": 1.1978620038160563,
          "deltaAngle": 0
        }
      }
    },
    {
      "frameId": "frame8586",
      "title": "Figure Problems",
      "titleLevel": 0,
      "notes": "",
      "timeoutMs": 0,
      "timeoutEnable": false,
      "transitionDurationMs": 1000,
      "showInFrameList": true,
      "showFrameNumber": true,
      "layerProperties": {
        "layer1": {
          "link": false,
          "referenceElementId": "image1-20",
          "outlineElementId": "",
          "transitionTimingFunction": "linear",
          "transitionRelativeZoom": 0,
          "transitionPathId": ""
        },
        "__sozi_auto__": {
          "link": false,
          "referenceElementId": "image1-20",
          "outlineElementId": "",
          "transitionTimingFunction": "linear",
          "transitionRelativeZoom": 0,
          "transitionPathId": ""
        }
      },
      "cameraStates": {
        "layer1": {
          "cx": 2686.478843989196,
          "cy": 688.6283030318227,
          "width": 613.6694587982063,
          "height": 460.0814407452625,
          "opacity": 1,
          "angle": 0,
          "clipped": false,
          "clipXOffset": 0,
          "clipYOffset": 0,
          "clipWidthFactor": 1,
          "clipHeightFactor": 1
        },
        "__sozi_auto__": {
          "cx": 2686.478843989196,
          "cy": 688.6283030318227,
          "width": 613.6694587982063,
          "height": 460.0814407452625,
          "opacity": 1,
          "angle": 0,
          "clipped": false,
          "clipXOffset": 0,
          "clipYOffset": 0,
          "clipWidthFactor": 1,
          "clipHeightFactor": 1
        }
      },
      "cameraOffsets": {
        "layer1": {
          "deltaX": 174.24300414544587,
          "deltaY": -36.753227729896025,
          "widthFactor": 2.7743787587858963,
          "heightFactor": 1.5147129556264518,
          "deltaAngle": 0
        },
        "__sozi_auto__": {
          "deltaX": 174.24300414544587,
          "deltaY": -36.753227729896025,
          "widthFactor": 2.7743787587858963,
          "heightFactor": 1.5147129556264518,
          "deltaAngle": 0
        }
      }
    },
    {
      "frameId": "frame7082",
      "title": "Technology",
      "titleLevel": 0,
      "notes": "",
      "timeoutMs": 0,
      "timeoutEnable": false,
      "transitionDurationMs": 1000,
      "showInFrameList": true,
      "showFrameNumber": true,
      "layerProperties": {
        "layer1": {
          "link": false,
          "referenceElementId": "rect11-38",
          "outlineElementId": "",
          "transitionTimingFunction": "linear",
          "transitionRelativeZoom": 0,
          "transitionPathId": ""
        },
        "__sozi_auto__": {
          "link": false,
          "referenceElementId": "rect11-38",
          "outlineElementId": "",
          "transitionTimingFunction": "linear",
          "transitionRelativeZoom": 0,
          "transitionPathId": ""
        }
      },
      "cameraStates": {
        "layer1": {
          "cx": 3318.7025838839713,
          "cy": 661.0037057887171,
          "width": 358.7998229041941,
          "height": 269.000089696804,
          "opacity": 1,
          "angle": 0,
          "clipped": false,
          "clipXOffset": 0,
          "clipYOffset": 0,
          "clipWidthFactor": 1,
          "clipHeightFactor": 1
        },
        "__sozi_auto__": {
          "cx": 3318.7025838839713,
          "cy": 661.0037057887171,
          "width": 358.7998229041941,
          "height": 269.000089696804,
          "opacity": 1,
          "angle": 0,
          "clipped": false,
          "clipXOffset": 0,
          "clipYOffset": 0,
          "clipWidthFactor": 1,
          "clipHeightFactor": 1
        }
      },
      "cameraOffsets": {
        "layer1": {
          "deltaX": -1.9460977566536712,
          "deltaY": -9.84773464097043,
          "widthFactor": 1.0703187269776477,
          "heightFactor": 1.632538428541468,
          "deltaAngle": 0
        },
        "__sozi_auto__": {
          "deltaX": -1.9460977566536712,
          "deltaY": -9.84773464097043,
          "widthFactor": 1.0703187269776477,
          "heightFactor": 1.632538428541468,
          "deltaAngle": 0
        }
      }
    },
    {
      "frameId": "frame9677",
      "title": "SMART-seq",
      "titleLevel": 0,
      "notes": "",
      "timeoutMs": 0,
      "timeoutEnable": false,
      "transitionDurationMs": 1000,
      "showInFrameList": true,
      "showFrameNumber": true,
      "layerProperties": {
        "layer1": {
          "link": false,
          "referenceElementId": "image1-334",
          "outlineElementId": "",
          "transitionTimingFunction": "linear",
          "transitionRelativeZoom": 0,
          "transitionPathId": ""
        },
        "__sozi_auto__": {
          "link": false,
          "referenceElementId": "image1-334",
          "outlineElementId": "",
          "transitionTimingFunction": "linear",
          "transitionRelativeZoom": 0,
          "transitionPathId": ""
        }
      },
      "cameraStates": {
        "layer1": {
          "cx": 3375.2795338509186,
          "cy": 387.4737184390068,
          "width": 376.73981404940383,
          "height": 282.45009418164426,
          "opacity": 1,
          "angle": 0,
          "clipped": false,
          "clipXOffset": 0,
          "clipYOffset": 0,
          "clipWidthFactor": 1,
          "clipHeightFactor": 1.0000000000000002
        },
        "__sozi_auto__": {
          "cx": 3375.2795338509186,
          "cy": 387.4737184390068,
          "width": 376.73981404940383,
          "height": 282.45009418164426,
          "opacity": 1,
          "angle": 0,
          "clipped": false,
          "clipXOffset": 0,
          "clipYOffset": 0,
          "clipWidthFactor": 1,
          "clipHeightFactor": 1.0000000000000002
        }
      },
      "cameraOffsets": {
        "layer1": {
          "deltaX": -27.559089195956403,
          "deltaY": -25.804052557086948,
          "widthFactor": 1.5101418543475646,
          "heightFactor": 1.2480378729655448,
          "deltaAngle": 0
        },
        "__sozi_auto__": {
          "deltaX": -27.559089195956403,
          "deltaY": -25.804052557086948,
          "widthFactor": 1.5101418543475646,
          "heightFactor": 1.2480378729655448,
          "deltaAngle": 0
        }
      }
    },
    {
      "frameId": "frame1512",
      "title": "CITE-seq",
      "titleLevel": 0,
      "notes": "",
      "timeoutMs": 0,
      "timeoutEnable": false,
      "transitionDurationMs": 1000,
      "showInFrameList": true,
      "showFrameNumber": true,
      "layerProperties": {
        "layer1": {
          "link": false,
          "referenceElementId": "image1-25",
          "outlineElementId": "",
          "transitionTimingFunction": "linear",
          "transitionRelativeZoom": 0,
          "transitionPathId": ""
        },
        "__sozi_auto__": {
          "link": false,
          "referenceElementId": "image1-25",
          "outlineElementId": "",
          "transitionTimingFunction": "linear",
          "transitionRelativeZoom": 0,
          "transitionPathId": ""
        }
      },
      "cameraStates": {
        "layer1": {
          "cx": 3726.0372917589857,
          "cy": 634.7223172033541,
          "width": 376.73981404940383,
          "height": 282.45009418164426,
          "opacity": 1,
          "angle": 0,
          "clipped": false,
          "clipXOffset": 0,
          "clipYOffset": 0,
          "clipWidthFactor": 1,
          "clipHeightFactor": 1
        },
        "__sozi_auto__": {
          "cx": 3726.0372917589857,
          "cy": 634.7223172033541,
          "width": 376.73981404940383,
          "height": 282.45009418164426,
          "opacity": 1,
          "angle": 0,
          "clipped": false,
          "clipXOffset": 0,
          "clipYOffset": 0,
          "clipWidthFactor": 1,
          "clipHeightFactor": 1
        }
      },
      "cameraOffsets": {
        "layer1": {
          "deltaX": 23.324156993360702,
          "deltaY": -31.569919124770877,
          "widthFactor": 1.3801688764932523,
          "heightFactor": 1.3731185002932882,
          "deltaAngle": 0
        },
        "__sozi_auto__": {
          "deltaX": 23.324156993360702,
          "deltaY": -31.569919124770877,
          "widthFactor": 1.3801688764932523,
          "heightFactor": 1.3731185002932882,
          "deltaAngle": 0
        }
      }
    },
    {
      "frameId": "frame3795",
      "title": "LSFM",
      "titleLevel": 0,
      "notes": "",
      "timeoutMs": 0,
      "timeoutEnable": false,
      "transitionDurationMs": 1000,
      "showInFrameList": true,
      "showFrameNumber": true,
      "layerProperties": {
        "layer1": {
          "link": false,
          "referenceElementId": "image1-47",
          "outlineElementId": "",
          "transitionTimingFunction": "linear",
          "transitionRelativeZoom": 0,
          "transitionPathId": ""
        },
        "__sozi_auto__": {
          "link": false,
          "referenceElementId": "image1-47",
          "outlineElementId": "",
          "transitionTimingFunction": "linear",
          "transitionRelativeZoom": 0,
          "transitionPathId": ""
        }
      },
      "cameraStates": {
        "layer1": {
          "cx": 3521.8449009546184,
          "cy": 944.6736137288274,
          "width": 457.92959860088865,
          "height": 343.31985479087757,
          "opacity": 1,
          "angle": 0,
          "clipped": false,
          "clipXOffset": 0,
          "clipYOffset": 0,
          "clipWidthFactor": 1,
          "clipHeightFactor": 1
        },
        "__sozi_auto__": {
          "cx": 3521.8449009546184,
          "cy": 944.6736137288274,
          "width": 457.92959860088865,
          "height": 343.31985479087757,
          "opacity": 1,
          "angle": 0,
          "clipped": false,
          "clipXOffset": 0,
          "clipYOffset": 0,
          "clipWidthFactor": 1,
          "clipHeightFactor": 1
        }
      },
      "cameraOffsets": {
        "layer1": {
          "deltaX": 60.429617751493424,
          "deltaY": -9.433625040703873,
          "widthFactor": 1.679595472394033,
          "heightFactor": 1.4642204306533138,
          "deltaAngle": 0
        },
        "__sozi_auto__": {
          "deltaX": 60.429617751493424,
          "deltaY": -9.433625040703873,
          "widthFactor": 1.679595472394033,
          "heightFactor": 1.4642204306533138,
          "deltaAngle": 0
        }
      }
    },
    {
      "frameId": "frame4161",
      "title": "Data",
      "titleLevel": 0,
      "notes": "",
      "timeoutMs": 0,
      "timeoutEnable": false,
      "transitionDurationMs": 1000,
      "showInFrameList": true,
      "showFrameNumber": true,
      "layerProperties": {
        "layer1": {
          "link": false,
          "referenceElementId": "rect11-5-2",
          "outlineElementId": "",
          "transitionTimingFunction": "linear",
          "transitionRelativeZoom": 0,
          "transitionPathId": ""
        },
        "__sozi_auto__": {
          "link": false,
          "referenceElementId": "rect11-5-2",
          "outlineElementId": "",
          "transitionTimingFunction": "linear",
          "transitionRelativeZoom": 0,
          "transitionPathId": ""
        }
      },
      "cameraStates": {
        "layer1": {
          "cx": 4721.440997568509,
          "cy": 419.6425180671768,
          "width": 1102.0621796693397,
          "height": 826.2401658477586,
          "opacity": 1,
          "angle": 0,
          "clipped": false,
          "clipXOffset": 0,
          "clipYOffset": 0,
          "clipWidthFactor": 1,
          "clipHeightFactor": 1
        },
        "__sozi_auto__": {
          "cx": 4721.440997568509,
          "cy": 419.6425180671768,
          "width": 1102.0621796693397,
          "height": 826.2401658477586,
          "opacity": 1,
          "angle": 0,
          "clipped": false,
          "clipXOffset": 0,
          "clipYOffset": 0,
          "clipWidthFactor": 1,
          "clipHeightFactor": 1
        }
      },
      "cameraOffsets": {
        "layer1": {
          "deltaX": -303.6410336814906,
          "deltaY": 15.273743653114309,
          "widthFactor": 2.6446186538746814,
          "heightFactor": 2.6893131340115617,
          "deltaAngle": 0
        },
        "__sozi_auto__": {
          "deltaX": -303.6410336814906,
          "deltaY": 15.273743653114309,
          "widthFactor": 2.6446186538746814,
          "heightFactor": 2.6893131340115617,
          "deltaAngle": 0
        }
      }
    },
    {
      "frameId": "frame7882",
      "title": "Data types",
      "titleLevel": 0,
      "notes": "",
      "timeoutMs": 0,
      "timeoutEnable": false,
      "transitionDurationMs": 1000,
      "showInFrameList": true,
      "showFrameNumber": true,
      "layerProperties": {
        "layer1": {
          "link": false,
          "referenceElementId": "rect11-5-0-0",
          "outlineElementId": "",
          "transitionTimingFunction": "linear",
          "transitionRelativeZoom": 0,
          "transitionPathId": ""
        },
        "__sozi_auto__": {
          "link": false,
          "referenceElementId": "rect11-5-0-0",
          "outlineElementId": "",
          "transitionTimingFunction": "linear",
          "transitionRelativeZoom": 0,
          "transitionPathId": ""
        }
      },
      "cameraStates": {
        "layer1": {
          "cx": 4407.687491832074,
          "cy": 429.45623309877357,
          "width": 504.8673824574813,
          "height": 378.51013990694366,
          "opacity": 1,
          "angle": 0,
          "clipped": false,
          "clipXOffset": 0,
          "clipYOffset": 0,
          "clipWidthFactor": 1,
          "clipHeightFactor": 1
        },
        "__sozi_auto__": {
          "cx": 4407.687491832074,
          "cy": 429.45623309877357,
          "width": 504.8673824574813,
          "height": 378.51013990694366,
          "opacity": 1,
          "angle": 0,
          "clipped": false,
          "clipXOffset": 0,
          "clipYOffset": 0,
          "clipWidthFactor": 1,
          "clipHeightFactor": 1
        }
      },
      "cameraOffsets": {
        "layer1": {
          "deltaX": 53.02635901957365,
          "deltaY": 4.430232122211066,
          "widthFactor": 1.639328436307632,
          "heightFactor": 1.02138500374656,
          "deltaAngle": 0
        },
        "__sozi_auto__": {
          "deltaX": 53.02635901957365,
          "deltaY": 4.430232122211066,
          "widthFactor": 1.639328436307632,
          "heightFactor": 1.02138500374656,
          "deltaAngle": 0
        }
      }
    },
    {
      "frameId": "frame7518",
      "title": "UMAP",
      "titleLevel": 0,
      "notes": "",
      "timeoutMs": 0,
      "timeoutEnable": false,
      "transitionDurationMs": 1000,
      "showInFrameList": true,
      "showFrameNumber": true,
      "layerProperties": {
        "layer1": {
          "link": false,
          "referenceElementId": "rect11-5-2",
          "outlineElementId": "",
          "transitionTimingFunction": "linear",
          "transitionRelativeZoom": 0,
          "transitionPathId": ""
        },
        "__sozi_auto__": {
          "link": false,
          "referenceElementId": "rect11-5-2",
          "outlineElementId": "",
          "transitionTimingFunction": "linear",
          "transitionRelativeZoom": 0,
          "transitionPathId": ""
        }
      },
      "cameraStates": {
        "layer1": {
          "cx": 5052.871471418125,
          "cy": 424.82313420525406,
          "width": 530.1107515803553,
          "height": 397.43564690229084,
          "opacity": 1,
          "angle": 0,
          "clipped": false,
          "clipXOffset": 0,
          "clipYOffset": 0,
          "clipWidthFactor": 1,
          "clipHeightFactor": 1.0000000000000002
        },
        "__sozi_auto__": {
          "cx": 5052.871471418125,
          "cy": 424.82313420525406,
          "width": 530.1107515803553,
          "height": 397.43564690229084,
          "opacity": 1,
          "angle": 0,
          "clipped": false,
          "clipXOffset": 0,
          "clipYOffset": 0,
          "clipWidthFactor": 1,
          "clipHeightFactor": 1.0000000000000002
        }
      },
      "cameraOffsets": {
        "layer1": {
          "deltaX": 27.78944016812511,
          "deltaY": 20.454359791191564,
          "widthFactor": 1.2721067904440475,
          "heightFactor": 1.293605599580174,
          "deltaAngle": 0
        },
        "__sozi_auto__": {
          "deltaX": 27.78944016812511,
          "deltaY": 20.454359791191564,
          "widthFactor": 1.2721067904440475,
          "heightFactor": 1.293605599580174,
          "deltaAngle": 0
        }
      }
    },
    {
      "frameId": "frame1451",
      "title": "RNA, Surface, Spacial",
      "titleLevel": 0,
      "notes": "",
      "timeoutMs": 0,
      "timeoutEnable": false,
      "transitionDurationMs": 1000,
      "showInFrameList": true,
      "showFrameNumber": true,
      "layerProperties": {
        "layer1": {
          "link": false,
          "referenceElementId": "rect11-5-8-1",
          "outlineElementId": "",
          "transitionTimingFunction": "linear",
          "transitionRelativeZoom": 0,
          "transitionPathId": ""
        },
        "__sozi_auto__": {
          "link": false,
          "referenceElementId": "rect11-5-8-1",
          "outlineElementId": "",
          "transitionTimingFunction": "linear",
          "transitionRelativeZoom": 0,
          "transitionPathId": ""
        }
      },
      "cameraStates": {
        "layer1": {
          "cx": 5895.165728266319,
          "cy": 563.5671514843009,
          "width": 906.6692825885028,
          "height": 679.749829215407,
          "opacity": 1,
          "angle": 0,
          "clipped": false,
          "clipXOffset": 0,
          "clipYOffset": 0,
          "clipWidthFactor": 1,
          "clipHeightFactor": 1
        },
        "__sozi_auto__": {
          "cx": 5895.165728266319,
          "cy": 563.5671514843009,
          "width": 906.6692825885028,
          "height": 679.749829215407,
          "opacity": 1,
          "angle": 0,
          "clipped": false,
          "clipXOffset": 0,
          "clipYOffset": 0,
          "clipWidthFactor": 1,
          "clipHeightFactor": 1
        }
      },
      "cameraOffsets": {
        "layer1": {
          "deltaX": -2.9578068899309073,
          "deltaY": 145.80915587883214,
          "widthFactor": 1.055340804965341,
          "heightFactor": 2.035122786792692,
          "deltaAngle": 0
        },
        "__sozi_auto__": {
          "deltaX": -2.9578068899309073,
          "deltaY": 145.80915587883214,
          "widthFactor": 1.055340804965341,
          "heightFactor": 2.035122786792692,
          "deltaAngle": 0
        }
      }
    },
    {
      "frameId": "frame9167",
      "title": "Change in Cell Type Composition",
      "titleLevel": 0,
      "notes": "",
      "timeoutMs": 0,
      "timeoutEnable": false,
      "transitionDurationMs": 1000,
      "showInFrameList": true,
      "showFrameNumber": true,
      "layerProperties": {
        "layer1": {
          "link": false,
          "referenceElementId": "image1-63-6-7-3",
          "outlineElementId": "",
          "transitionTimingFunction": "linear",
          "transitionRelativeZoom": 0,
          "transitionPathId": ""
        },
        "__sozi_auto__": {
          "link": false,
          "referenceElementId": "image1-63-6-7-3",
          "outlineElementId": "",
          "transitionTimingFunction": "linear",
          "transitionRelativeZoom": 0,
          "transitionPathId": ""
        }
      },
      "cameraStates": {
        "layer1": {
          "cx": 4544.085399963861,
          "cy": 1084.200310885255,
          "width": 745.919062603342,
          "height": 559.2318667348749,
          "opacity": 1,
          "angle": 0,
          "clipped": false,
          "clipXOffset": 0,
          "clipYOffset": 0,
          "clipWidthFactor": 1,
          "clipHeightFactor": 1
        },
        "__sozi_auto__": {
          "cx": 4544.085399963861,
          "cy": 1084.200310885255,
          "width": 745.919062603342,
          "height": 559.2318667348749,
          "opacity": 1,
          "angle": 0,
          "clipped": false,
          "clipXOffset": 0,
          "clipYOffset": 0,
          "clipWidthFactor": 1,
          "clipHeightFactor": 1
        }
      },
      "cameraOffsets": {
        "layer1": {
          "deltaX": 42.954540588861164,
          "deltaY": -6.191046536619979,
          "widthFactor": 1.2699196639341854,
          "heightFactor": 1.798836018201501,
          "deltaAngle": 0
        },
        "__sozi_auto__": {
          "deltaX": 42.954540588861164,
          "deltaY": -6.191046536619979,
          "widthFactor": 1.2699196639341854,
          "heightFactor": 1.798836018201501,
          "deltaAngle": 0
        }
      }
    },
    {
      "frameId": "frame9486",
      "title": "Multi-organ Functions of Yolk Sac",
      "titleLevel": 0,
      "notes": "",
      "timeoutMs": 0,
      "timeoutEnable": false,
      "transitionDurationMs": 1000,
      "showInFrameList": true,
      "showFrameNumber": true,
      "layerProperties": {
        "layer1": {
          "link": false,
          "referenceElementId": "rect11-5-8-7-5",
          "outlineElementId": "",
          "transitionTimingFunction": "linear",
          "transitionRelativeZoom": 0,
          "transitionPathId": ""
        },
        "__sozi_auto__": {
          "link": false,
          "referenceElementId": "rect11-5-8-7-5",
          "outlineElementId": "",
          "transitionTimingFunction": "linear",
          "transitionRelativeZoom": 0,
          "transitionPathId": ""
        }
      },
      "cameraStates": {
        "layer1": {
          "cx": 7011.622668825382,
          "cy": 436.07599869229426,
          "width": 613.6694587982116,
          "height": 460.08144074526655,
          "opacity": 1,
          "angle": 0,
          "clipped": false,
          "clipXOffset": 0,
          "clipYOffset": 0,
          "clipWidthFactor": 1,
          "clipHeightFactor": 1
        },
        "__sozi_auto__": {
          "cx": 7011.622668825382,
          "cy": 436.07599869229426,
          "width": 613.6694587982116,
          "height": 460.08144074526655,
          "opacity": 1,
          "angle": 0,
          "clipped": false,
          "clipXOffset": 0,
          "clipYOffset": 0,
          "clipWidthFactor": 1,
          "clipHeightFactor": 1
        }
      },
      "cameraOffsets": {
        "layer1": {
          "deltaX": 122.55577429413188,
          "deltaY": -35.95042953036199,
          "widthFactor": 1.7800312251943644,
          "heightFactor": 1.5638018116492944,
          "deltaAngle": 0
        },
        "__sozi_auto__": {
          "deltaX": 122.55577429413188,
          "deltaY": -35.95042953036199,
          "widthFactor": 1.7800312251943644,
          "heightFactor": 1.5638018116492944,
          "deltaAngle": 0
        }
      }
    },
    {
      "frameId": "frame6560",
      "title": "Early Vs Definitive Hematopoesis YS & Liver",
      "titleLevel": 0,
      "notes": "",
      "timeoutMs": 0,
      "timeoutEnable": false,
      "transitionDurationMs": 1000,
      "showInFrameList": true,
      "showFrameNumber": true,
      "layerProperties": {
        "layer1": {
          "link": false,
          "referenceElementId": "rect5-8-8-6-96-6-4-7-0-6-1",
          "outlineElementId": "",
          "transitionTimingFunction": "linear",
          "transitionRelativeZoom": 0,
          "transitionPathId": ""
        },
        "__sozi_auto__": {
          "link": false,
          "referenceElementId": "rect5-8-8-6-96-6-4-7-0-6-1",
          "outlineElementId": "",
          "transitionTimingFunction": "linear",
          "transitionRelativeZoom": 0,
          "transitionPathId": ""
        }
      },
      "cameraStates": {
        "layer1": {
          "cx": 8042.114827350302,
          "cy": 369.9189432463492,
          "width": 783.2150157335135,
          "height": 587.1934600716219,
          "opacity": 1,
          "angle": 0,
          "clipped": false,
          "clipXOffset": 0,
          "clipYOffset": 0,
          "clipWidthFactor": 1,
          "clipHeightFactor": 1.0000000000000002
        },
        "__sozi_auto__": {
          "cx": 8042.114827350302,
          "cy": 369.9189432463492,
          "width": 783.2150157335135,
          "height": 587.1934600716219,
          "opacity": 1,
          "angle": 0,
          "clipped": false,
          "clipXOffset": 0,
          "clipYOffset": 0,
          "clipWidthFactor": 1,
          "clipHeightFactor": 1.0000000000000002
        }
      },
      "cameraOffsets": {
        "layer1": {
          "deltaX": -170.14786796219778,
          "deltaY": -60.995180288807035,
          "widthFactor": 1.8317963176453733,
          "heightFactor": 1.8934643189145344,
          "deltaAngle": 0
        },
        "__sozi_auto__": {
          "deltaX": -170.14786796219778,
          "deltaY": -60.995180288807035,
          "widthFactor": 1.8317963176453733,
          "heightFactor": 1.8934643189145344,
          "deltaAngle": 0
        }
      }
    },
    {
      "frameId": "frame5688",
      "title": "Proportin of Early to definitive",
      "titleLevel": 0,
      "notes": "",
      "timeoutMs": 0,
      "timeoutEnable": false,
      "transitionDurationMs": 1000,
      "showInFrameList": true,
      "showFrameNumber": true,
      "layerProperties": {
        "layer1": {
          "link": false,
          "referenceElementId": "rect5-8-8-6-96-6-4-7-0-6-2-1-9",
          "outlineElementId": "",
          "transitionTimingFunction": "linear",
          "transitionRelativeZoom": 0,
          "transitionPathId": ""
        },
        "__sozi_auto__": {
          "link": false,
          "referenceElementId": "rect5-8-8-6-96-6-4-7-0-6-2-1-9",
          "outlineElementId": "",
          "transitionTimingFunction": "linear",
          "transitionRelativeZoom": 0,
          "transitionPathId": ""
        }
      },
      "cameraStates": {
        "layer1": {
          "cx": 7782.44600137179,
          "cy": 846.497792700935,
          "width": 584.4471036173461,
          "height": 438.1728007097789,
          "opacity": 1,
          "angle": 0,
          "clipped": false,
          "clipXOffset": 0,
          "clipYOffset": 0,
          "clipWidthFactor": 1,
          "clipHeightFactor": 1.0000000000000002
        },
        "__sozi_auto__": {
          "cx": 7782.44600137179,
          "cy": 846.497792700935,
          "width": 584.4471036173461,
          "height": 438.1728007097789,
          "opacity": 1,
          "angle": 0,
          "clipped": false,
          "clipXOffset": 0,
          "clipYOffset": 0,
          "clipWidthFactor": 1,
          "clipHeightFactor": 1.0000000000000002
        }
      },
      "cameraOffsets": {
        "layer1": {
          "deltaX": -122.18925253446014,
          "deltaY": 5.061513404059951,
          "widthFactor": 2.9124870645753678,
          "heightFactor": 1.448123320327367,
          "deltaAngle": 0
        },
        "__sozi_auto__": {
          "deltaX": -122.18925253446014,
          "deltaY": 5.061513404059951,
          "widthFactor": 2.9124870645753678,
          "heightFactor": 1.448123320327367,
          "deltaAngle": 0
        }
      }
    },
    {
      "frameId": "frame3916",
      "title": "YS to Liver handoff",
      "titleLevel": 0,
      "notes": "",
      "timeoutMs": 0,
      "timeoutEnable": false,
      "transitionDurationMs": 1000,
      "showInFrameList": true,
      "showFrameNumber": true,
      "layerProperties": {
        "layer1": {
          "link": false,
          "referenceElementId": "rect11-5-8-74-7-6-4",
          "outlineElementId": "",
          "transitionTimingFunction": "linear",
          "transitionRelativeZoom": 0,
          "transitionPathId": ""
        },
        "__sozi_auto__": {
          "link": false,
          "referenceElementId": "rect11-5-8-74-7-6-4",
          "outlineElementId": "",
          "transitionTimingFunction": "linear",
          "transitionRelativeZoom": 0,
          "transitionPathId": ""
        }
      },
      "cameraStates": {
        "layer1": {
          "cx": 8308.842909579294,
          "cy": 847.4574759581062,
          "width": 556.6162891593772,
          "height": 417.3074292474085,
          "opacity": 1,
          "angle": 0,
          "clipped": false,
          "clipXOffset": 0,
          "clipYOffset": 0,
          "clipWidthFactor": 1,
          "clipHeightFactor": 1
        },
        "__sozi_auto__": {
          "cx": 8308.842909579294,
          "cy": 847.4574759581062,
          "width": 556.6162891593772,
          "height": 417.3074292474085,
          "opacity": 1,
          "angle": 0,
          "clipped": false,
          "clipXOffset": 0,
          "clipYOffset": 0,
          "clipWidthFactor": 1,
          "clipHeightFactor": 1
        }
      },
      "cameraOffsets": {
        "layer1": {
          "deltaX": 71.15247989179443,
          "deltaY": 21.717912969824965,
          "widthFactor": 1.897658522349649,
          "heightFactor": 1.3709102981291128,
          "deltaAngle": 0
        },
        "__sozi_auto__": {
          "deltaX": 71.15247989179443,
          "deltaY": 21.717912969824965,
          "widthFactor": 1.897658522349649,
          "heightFactor": 1.3709102981291128,
          "deltaAngle": 0
        }
      }
    },
    {
      "frameId": "frame8833",
      "title": "lifespan of HSPCs",
      "titleLevel": 0,
      "notes": "",
      "timeoutMs": 0,
      "timeoutEnable": false,
      "transitionDurationMs": 1000,
      "showInFrameList": true,
      "showFrameNumber": true,
      "layerProperties": {
        "layer1": {
          "link": false,
          "referenceElementId": "rect5-8-8-6-96-6-4-3-7-0",
          "outlineElementId": "",
          "transitionTimingFunction": "linear",
          "transitionRelativeZoom": 0,
          "transitionPathId": ""
        },
        "__sozi_auto__": {
          "link": false,
          "referenceElementId": "rect5-8-8-6-96-6-4-3-7-0",
          "outlineElementId": "",
          "transitionTimingFunction": "linear",
          "transitionRelativeZoom": 0,
          "transitionPathId": ""
        }
      },
      "cameraStates": {
        "layer1": {
          "cx": 8730.68415961787,
          "cy": 406.38282922027315,
          "width": 530.11075158036,
          "height": 397.43564690229437,
          "opacity": 1,
          "angle": 0,
          "clipped": false,
          "clipXOffset": 0,
          "clipYOffset": 0,
          "clipWidthFactor": 1.0000000000000002,
          "clipHeightFactor": 1
        },
        "__sozi_auto__": {
          "cx": 8730.68415961787,
          "cy": 406.38282922027315,
          "width": 530.11075158036,
          "height": 397.43564690229437,
          "opacity": 1,
          "angle": 0,
          "clipped": false,
          "clipXOffset": 0,
          "clipYOffset": 0,
          "clipWidthFactor": 1.0000000000000002,
          "clipHeightFactor": 1
        }
      },
      "cameraOffsets": {
        "layer1": {
          "deltaX": -72.23771538213077,
          "deltaY": -21.473677127383098,
          "widthFactor": 2.154374135977969,
          "heightFactor": 1.8262133652848995,
          "deltaAngle": 0
        },
        "__sozi_auto__": {
          "deltaX": -72.23771538213077,
          "deltaY": -21.473677127383098,
          "widthFactor": 2.154374135977969,
          "heightFactor": 1.8262133652848995,
          "deltaAngle": 0
        }
      }
    },
    {
      "frameId": "frame9282",
      "title": "endothemial to hemogenic",
      "titleLevel": 0,
      "notes": "",
      "timeoutMs": 0,
      "timeoutEnable": false,
      "transitionDurationMs": 1000,
      "showInFrameList": true,
      "showFrameNumber": true,
      "layerProperties": {
        "layer1": {
          "link": false,
          "referenceElementId": "rect5-8-8-6-96-6-4-4-0",
          "outlineElementId": "",
          "transitionTimingFunction": "linear",
          "transitionRelativeZoom": 0,
          "transitionPathId": ""
        },
        "__sozi_auto__": {
          "link": false,
          "referenceElementId": "rect5-8-8-6-96-6-4-4-0",
          "outlineElementId": "",
          "transitionTimingFunction": "linear",
          "transitionRelativeZoom": 0,
          "transitionPathId": ""
        }
      },
      "cameraStates": {
        "layer1": {
          "cx": 9174.222210698777,
          "cy": 466.3928094395959,
          "width": 457.929598600894,
          "height": 343.3198547908816,
          "opacity": 1,
          "angle": 0,
          "clipped": false,
          "clipXOffset": 0,
          "clipYOffset": 0,
          "clipWidthFactor": 1,
          "clipHeightFactor": 1
        },
        "__sozi_auto__": {
          "cx": 9174.222210698777,
          "cy": 466.3928094395959,
          "width": 457.929598600894,
          "height": 343.3198547908816,
          "opacity": 1,
          "angle": 0,
          "clipped": false,
          "clipXOffset": 0,
          "clipYOffset": 0,
          "clipWidthFactor": 1,
          "clipHeightFactor": 1
        }
      },
      "cameraOffsets": {
        "layer1": {
          "deltaX": -3.484820551222583,
          "deltaY": 4.844896841939658,
          "widthFactor": 1.2535064233089515,
          "heightFactor": 1.2045826997750475,
          "deltaAngle": 0
        },
        "__sozi_auto__": {
          "deltaX": -3.484820551222583,
          "deltaY": 4.844896841939658,
          "widthFactor": 1.2535064233089515,
          "heightFactor": 1.2045826997750475,
          "deltaAngle": 0
        }
      }
    },
    {
      "frameId": "frame2782",
      "title": "DFGs",
      "titleLevel": 0,
      "notes": "",
      "timeoutMs": 0,
      "timeoutEnable": false,
      "transitionDurationMs": 1000,
      "showInFrameList": true,
      "showFrameNumber": true,
      "layerProperties": {
        "layer1": {
          "link": false,
          "referenceElementId": "image1-57",
          "outlineElementId": "",
          "transitionTimingFunction": "linear",
          "transitionRelativeZoom": 0,
          "transitionPathId": ""
        },
        "__sozi_auto__": {
          "link": false,
          "referenceElementId": "image1-57",
          "outlineElementId": "",
          "transitionTimingFunction": "linear",
          "transitionRelativeZoom": 0,
          "transitionPathId": ""
        }
      },
      "cameraStates": {
        "layer1": {
          "cx": 9175.66430609558,
          "cy": 630.1427255946581,
          "width": 436.12342723894693,
          "height": 326.9712902770303,
          "opacity": 1,
          "angle": 0,
          "clipped": false,
          "clipXOffset": 0,
          "clipYOffset": 0,
          "clipWidthFactor": 1.0000000000000002,
          "clipHeightFactor": 1
        },
        "__sozi_auto__": {
          "cx": 9175.66430609558,
          "cy": 630.1427255946581,
          "width": 436.12342723894693,
          "height": 326.9712902770303,
          "opacity": 1,
          "angle": 0,
          "clipped": false,
          "clipXOffset": 0,
          "clipYOffset": 0,
          "clipWidthFactor": 1.0000000000000002,
          "clipHeightFactor": 1
        }
      },
      "cameraOffsets": {
        "layer1": {
          "deltaX": -2.042725154420623,
          "deltaY": -83.93063866315435,
          "widthFactor": 1.1938150428815821,
          "heightFactor": 2.169768039092726,
          "deltaAngle": 0
        },
        "__sozi_auto__": {
          "deltaX": -2.042725154420623,
          "deltaY": -83.93063866315435,
          "widthFactor": 1.1938150428815821,
          "heightFactor": 2.169768039092726,
          "deltaAngle": 0
        }
      }
    },
    {
      "frameId": "frame1402",
      "title": "accelerted macrophage production",
      "titleLevel": 0,
      "notes": "",
      "timeoutMs": 0,
      "timeoutEnable": false,
      "transitionDurationMs": 1000,
      "showInFrameList": true,
      "showFrameNumber": true,
      "layerProperties": {
        "layer1": {
          "link": false,
          "referenceElementId": "rect5-8-8-6-3-4-4",
          "outlineElementId": "",
          "transitionTimingFunction": "linear",
          "transitionRelativeZoom": 0,
          "transitionPathId": ""
        },
        "__sozi_auto__": {
          "link": false,
          "referenceElementId": "rect5-8-8-6-3-4-4",
          "outlineElementId": "",
          "transitionTimingFunction": "linear",
          "transitionRelativeZoom": 0,
          "transitionPathId": ""
        }
      },
      "cameraStates": {
        "layer1": {
          "cx": 10044.324068065267,
          "cy": 577.9140906175077,
          "width": 1275.7747307397347,
          "height": 956.476271989523,
          "opacity": 1,
          "angle": 0,
          "clipped": false,
          "clipXOffset": 0,
          "clipYOffset": 0,
          "clipWidthFactor": 1,
          "clipHeightFactor": 1.0000000000000002
        },
        "__sozi_auto__": {
          "cx": 10044.324068065267,
          "cy": 577.9140906175077,
          "width": 1275.7747307397347,
          "height": 956.476271989523,
          "opacity": 1,
          "angle": 0,
          "clipped": false,
          "clipXOffset": 0,
          "clipYOffset": 0,
          "clipWidthFactor": 1,
          "clipHeightFactor": 1.0000000000000002
        }
      },
      "cameraOffsets": {
        "layer1": {
          "deltaX": 333.46273994026706,
          "deltaY": 105.88790653547642,
          "widthFactor": 2.600768982729966,
          "heightFactor": 2.7858907761645635,
          "deltaAngle": 0
        },
        "__sozi_auto__": {
          "deltaX": 333.46273994026706,
          "deltaY": 105.88790653547642,
          "widthFactor": 2.600768982729966,
          "heightFactor": 2.7858907761645635,
          "deltaAngle": 0
        }
      }
    },
    {
      "frameId": "frame2751",
      "title": "HSPC to macrophage at AGM",
      "titleLevel": 0,
      "notes": "",
      "timeoutMs": 0,
      "timeoutEnable": false,
      "transitionDurationMs": 1000,
      "showInFrameList": true,
      "showFrameNumber": true,
      "layerProperties": {
        "layer1": {
          "link": false,
          "referenceElementId": "rect5-8-8-6-3-4-4",
          "outlineElementId": "",
          "transitionTimingFunction": "linear",
          "transitionRelativeZoom": 0,
          "transitionPathId": ""
        },
        "__sozi_auto__": {
          "link": false,
          "referenceElementId": "rect5-8-8-6-3-4-4",
          "outlineElementId": "",
          "transitionTimingFunction": "linear",
          "transitionRelativeZoom": 0,
          "transitionPathId": ""
        }
      },
      "cameraStates": {
        "layer1": {
          "cx": 9767.352615842934,
          "cy": 575.6116418197238,
          "width": 783.2150157335168,
          "height": 587.1934600716244,
          "opacity": 1,
          "angle": 0,
          "clipped": false,
          "clipXOffset": 0,
          "clipYOffset": 0,
          "clipWidthFactor": 1,
          "clipHeightFactor": 1
        },
        "__sozi_auto__": {
          "cx": 9767.352615842934,
          "cy": 575.6116418197238,
          "width": 783.2150157335168,
          "height": 587.1934600716244,
          "opacity": 1,
          "angle": 0,
          "clipped": false,
          "clipXOffset": 0,
          "clipYOffset": 0,
          "clipWidthFactor": 1,
          "clipHeightFactor": 1
        }
      },
      "cameraOffsets": {
        "layer1": {
          "deltaX": 56.49128771793403,
          "deltaY": 103.58545773769254,
          "widthFactor": 1.5966465478956446,
          "heightFactor": 1.7102952704043788,
          "deltaAngle": 0
        },
        "__sozi_auto__": {
          "deltaX": 56.49128771793403,
          "deltaY": 103.58545773769254,
          "widthFactor": 1.5966465478956446,
          "heightFactor": 1.7102952704043788,
          "deltaAngle": 0
        }
      }
    },
    {
      "frameId": "frame1426",
      "title": "HSPC to macrophage",
      "titleLevel": 0,
      "notes": "",
      "timeoutMs": 0,
      "timeoutEnable": false,
      "transitionDurationMs": 1000,
      "showInFrameList": true,
      "showFrameNumber": true,
      "layerProperties": {
        "layer1": {
          "link": false,
          "referenceElementId": "image1-47-6-7-9",
          "outlineElementId": "",
          "transitionTimingFunction": "linear",
          "transitionRelativeZoom": 0,
          "transitionPathId": ""
        },
        "__sozi_auto__": {
          "link": false,
          "referenceElementId": "image1-47-6-7-9",
          "outlineElementId": "",
          "transitionTimingFunction": "linear",
          "transitionRelativeZoom": 0,
          "transitionPathId": ""
        }
      },
      "cameraStates": {
        "layer1": {
          "cx": 10340.322523302611,
          "cy": 495.8643544923699,
          "width": 644.3529317381269,
          "height": 483.1342629874539,
          "opacity": 1,
          "angle": 0,
          "clipped": false,
          "clipXOffset": 0,
          "clipYOffset": 0,
          "clipWidthFactor": 1,
          "clipHeightFactor": 1
        },
        "__sozi_auto__": {
          "cx": 10340.322523302611,
          "cy": 495.8643544923699,
          "width": 644.3529317381269,
          "height": 483.1342629874539,
          "opacity": 1,
          "angle": 0,
          "clipped": false,
          "clipXOffset": 0,
          "clipYOffset": 0,
          "clipWidthFactor": 1,
          "clipHeightFactor": 1
        }
      },
      "cameraOffsets": {
        "layer1": {
          "deltaX": -142.97239857238856,
          "deltaY": 23.8377431642449,
          "widthFactor": 2.2375355772278955,
          "heightFactor": 1.7405393273915797,
          "deltaAngle": 0
        },
        "__sozi_auto__": {
          "deltaX": -142.97239857238856,
          "deltaY": 23.8377431642449,
          "widthFactor": 2.2375355772278955,
          "heightFactor": 1.7405393273915797,
          "deltaAngle": 0
        }
      }
    },
    {
      "frameId": "frame8738",
      "title": "HSPC to macrophage",
      "titleLevel": 0,
      "notes": "",
      "timeoutMs": 0,
      "timeoutEnable": false,
      "transitionDurationMs": 1000,
      "showInFrameList": true,
      "showFrameNumber": true,
      "layerProperties": {
        "layer1": {
          "link": false,
          "referenceElementId": "image1-57",
          "outlineElementId": "",
          "transitionTimingFunction": "linear",
          "transitionRelativeZoom": 0,
          "transitionPathId": ""
        },
        "__sozi_auto__": {
          "link": false,
          "referenceElementId": "image1-57",
          "outlineElementId": "",
          "transitionTimingFunction": "linear",
          "transitionRelativeZoom": 0,
          "transitionPathId": ""
        }
      },
      "cameraStates": {
        "layer1": {
          "cx": 9054.678833320613,
          "cy": 700.3487097218961,
          "width": 1102.0621796693542,
          "height": 826.3235452419611,
          "opacity": 1,
          "angle": 0,
          "clipped": false,
          "clipXOffset": 0,
          "clipYOffset": 0,
          "clipWidthFactor": 1.0000000000000002,
          "clipHeightFactor": 1
        },
        "__sozi_auto__": {
          "cx": 9054.678833320613,
          "cy": 700.3487097218961,
          "width": 1102.0621796693542,
          "height": 826.3235452419611,
          "opacity": 1,
          "angle": 0,
          "clipped": false,
          "clipXOffset": 0,
          "clipYOffset": 0,
          "clipWidthFactor": 1.0000000000000002,
          "clipHeightFactor": 1
        }
      },
      "cameraOffsets": {
        "layer1": {
          "deltaX": -123.0281979293868,
          "deltaY": -13.724654535916443,
          "widthFactor": 3.016711155852002,
          "heightFactor": 5.483449072536974,
          "deltaAngle": 0
        },
        "__sozi_auto__": {
          "deltaX": -123.0281979293868,
          "deltaY": -13.724654535916443,
          "widthFactor": 3.016711155852002,
          "heightFactor": 5.483449072536974,
          "deltaAngle": 0
        }
      }
    }
  ],
  "elementsToHide": [],
  "customFiles": [],
  "selectedFrames": [
    "frame1426"
  ],
  "selectedLayers": [
    "layer1",
    "__sozi_auto__"
  ],
  "editableLayers": []
}